<?xml version="1.0" encoding="UTF-8" standalone="no"?>
<!-- Created with Inkscape (http://www.inkscape.org/) -->

<svg
   xmlns:dc="http://purl.org/dc/elements/1.1/"
   xmlns:cc="http://creativecommons.org/ns#"
   xmlns:rdf="http://www.w3.org/1999/02/22-rdf-syntax-ns#"
   xmlns:svg="http://www.w3.org/2000/svg"
   xmlns="http://www.w3.org/2000/svg"
   xmlns:xlink="http://www.w3.org/1999/xlink"
   xmlns:sodipodi="http://sodipodi.sourceforge.net/DTD/sodipodi-0.dtd"
   xmlns:inkscape="http://www.inkscape.org/namespaces/inkscape"
   width="100"
   height="100"
   viewBox="0 0 100 100"
   id="svg2"
   version="1.1"
   inkscape:version="0.91 r13725"
   sodipodi:docname="Logo.svg"
   inkscape:export-filename="/home/modos189/Skar.im/Logo_v15.png"
   inkscape:export-xdpi="450"
   inkscape:export-ydpi="450"
   enable-background="new">
  <defs
     id="defs4">
    <linearGradient
       inkscape:collect="always"
       id="linearGradient4263">
      <stop
         style="stop-color:#70bf73;stop-opacity:1"
         offset="0"
         id="stop4265" />
      <stop
         style="stop-color:#44964b;stop-opacity:1"
         offset="1"
         id="stop4267" />
    </linearGradient>
    <linearGradient
       id="linearGradient4542"
       inkscape:collect="always">
      <stop
         id="stop4544"
         offset="0"
         style="stop-color:#43a547;stop-opacity:1" />
      <stop
         id="stop4546"
         offset="1"
         style="stop-color:#56ba5a;stop-opacity:1" />
    </linearGradient>
    <marker
       inkscape:stockid="Tail"
       orient="auto"
       refY="0.0"
       refX="0.0"
       id="Tail"
       style="overflow:visible"
       inkscape:isstock="true">
      <g
         id="g4392"
         transform="scale(-1.2)">
        <path
           id="path4394"
           d="M -3.8048674,-3.9585227 L 0.54352094,0"
           style="fill:none;fill-rule:evenodd;stroke:#000000;stroke-width:0.8;stroke-linecap:round" />
        <path
           id="path4396"
           d="M -1.2866832,-3.9585227 L 3.0617053,0"
           style="fill:none;fill-rule:evenodd;stroke:#000000;stroke-width:0.8;stroke-linecap:round" />
        <path
           id="path4398"
           d="M 1.3053582,-3.9585227 L 5.6537466,0"
           style="fill:none;fill-rule:evenodd;stroke:#000000;stroke-width:0.8;stroke-linecap:round" />
        <path
           id="path4400"
           d="M -3.8048674,4.1775838 L 0.54352094,0.21974226"
           style="fill:none;fill-rule:evenodd;stroke:#000000;stroke-width:0.8;stroke-linecap:round" />
        <path
           id="path4402"
           d="M -1.2866832,4.1775838 L 3.0617053,0.21974226"
           style="fill:none;fill-rule:evenodd;stroke:#000000;stroke-width:0.8;stroke-linecap:round" />
        <path
           id="path4404"
           d="M 1.3053582,4.1775838 L 5.6537466,0.21974226"
           style="fill:none;fill-rule:evenodd;stroke:#000000;stroke-width:0.8;stroke-linecap:round" />
      </g>
    </marker>
    <marker
       inkscape:stockid="Arrow1Lstart"
       orient="auto"
       refY="0.0"
       refX="0.0"
       id="Arrow1Lstart"
       style="overflow:visible"
       inkscape:isstock="true">
      <path
         id="path4356"
         d="M 0.0,0.0 L 5.0,-5.0 L -12.5,0.0 L 5.0,5.0 L 0.0,0.0 z "
         style="fill-rule:evenodd;stroke:#000000;stroke-width:1.0pt"
         transform="scale(0.8) translate(12.5,0)" />
    </marker>
    <marker
       inkscape:stockid="Arrow2Sstart"
       orient="auto"
       refY="0.0"
       refX="0.0"
       id="Arrow2Sstart"
       style="overflow:visible"
       inkscape:isstock="true">
      <path
         id="path4386"
         style="fill-rule:evenodd;stroke-width:0.62500000;stroke-linejoin:round"
         d="M 8.7185878,4.0337352 L -2.2072895,0.016013256 L 8.7185884,-4.0017078 C 6.9730900,-1.6296469 6.9831476,1.6157441 8.7185878,4.0337352 z "
         transform="scale(0.3) translate(-2.3,0)" />
    </marker>
    <linearGradient
       inkscape:collect="always"
       xlink:href="#linearGradient4542"
       id="linearGradient4520"
       x1="92.000572"
       y1="-1036.8622"
       x2="92.000572"
       y2="-953.86218"
       gradientUnits="userSpaceOnUse"
       gradientTransform="matrix(1,0,0,-1,-3.8051824e-7,-952.3622)" />
    <linearGradient
       inkscape:collect="always"
       xlink:href="#linearGradient4263"
       id="linearGradient4273"
       x1="8"
       y1="1.5"
       x2="8"
       y2="84.999977"
       gradientUnits="userSpaceOnUse" />
    <filter
       inkscape:collect="always"
       style="color-interpolation-filters:sRGB"
       id="filter4561"
       x="-0.02587942"
       width="1.0517588"
       y="-0.022375073"
       height="1.0447501">
      <feGaussianBlur
         inkscape:collect="always"
         stdDeviation="0.89500279"
         id="feGaussianBlur4563" />
    </filter>
  </defs>
  <sodipodi:namedview
     id="base"
     pagecolor="#ffffff"
     bordercolor="#666666"
     borderopacity="1.0"
     inkscape:pageopacity="0.0"
     inkscape:pageshadow="2"
     inkscape:zoom="4"
     inkscape:cx="58.33133"
     inkscape:cy="28.80138"
     inkscape:document-units="px"
     inkscape:current-layer="layer5"
     showgrid="false"
     units="px"
     inkscape:snap-bbox="true"
     inkscape:object-paths="true"
     inkscape:snap-intersection-paths="true"
     inkscape:object-nodes="true"
     inkscape:snap-smooth-nodes="true"
     inkscape:snap-midpoints="true"
     inkscape:snap-bbox-midpoints="true"
     inkscape:snap-bbox-edge-midpoints="true"
     inkscape:bbox-nodes="true"
     inkscape:bbox-paths="true"
     showguides="true"
     inkscape:guide-bbox="true"
     inkscape:window-width="1310"
     inkscape:window-height="739"
     inkscape:window-x="56"
     inkscape:window-y="0"
     inkscape:window-maximized="1"
     inkscape:snap-nodes="true"
     inkscape:snap-center="true"
     inkscape:snap-object-midpoints="true"
     inkscape:snap-text-baseline="true"
     inkscape:snap-others="false">
    <sodipodi:guide
       position="50,50.000017"
       orientation="1,0"
       id="guide4184" />
    <sodipodi:guide
       position="91.5,56.500017"
       orientation="0,1"
       id="guide4191" />
    <sodipodi:guide
       position="50,15.000017"
       orientation="0,1"
       id="guide4199" />
    <sodipodi:guide
       position="50,36.000017"
       orientation="0,1"
       id="guide4226" />
    <sodipodi:guide
       position="50,77.000017"
       orientation="0,1"
       id="guide4298" />
    <sodipodi:guide
       position="50,81.500017"
       orientation="0,1"
       id="guide4302" />
    <sodipodi:guide
       position="50,87.500017"
       orientation="0,1"
       id="guide4306" />
    <sodipodi:guide
       position="50,93.500017"
       orientation="0,1"
       id="guide4310" />
    <sodipodi:guide
       position="29.5,56.500017"
       orientation="1,0"
       id="guide4312" />
    <sodipodi:guide
       position="25,56.500017"
       orientation="1,0"
       id="guide4314" />
    <sodipodi:guide
       position="19,56.500017"
       orientation="1,0"
       id="guide4318" />
    <sodipodi:guide
       position="13,56.500017"
       orientation="1,0"
       id="guide4322" />
    <sodipodi:guide
       position="70.5,56.500017"
       orientation="1,0"
       id="guide4326" />
    <sodipodi:guide
       position="75,56.500017"
       orientation="1,0"
       id="guide4330" />
    <sodipodi:guide
       position="81,56.500017"
       orientation="1,0"
       id="guide4334" />
    <sodipodi:guide
       position="87,56.500017"
       orientation="1,0"
       id="guide4338" />
    <sodipodi:guide
       position="50,31.500017"
       orientation="0,1"
       id="guide4340" />
    <sodipodi:guide
       position="50,25.500017"
       orientation="0,1"
       id="guide4342" />
    <sodipodi:guide
       position="50,19.500017"
       orientation="0,1"
       id="guide4344" />
    <sodipodi:guide
       position="-41.279747,156.45534"
       orientation="0,1"
       id="guide4776" />
    <sodipodi:guide
       position="-41.279747,156.45534"
       orientation="1,0"
       id="guide4778" />
    <sodipodi:guide
       position="53.095623,94.87493"
       orientation="0.70710678,0.70710678"
       id="guide4361" />
    <sodipodi:guide
       position="13.22879,67.912995"
       orientation="0.70710678,0.70710678"
       id="guide4363" />
    <sodipodi:guide
       position="17.494313,55.928214"
       orientation="0.70710678,0.70710678"
       id="guide4365" />
    <sodipodi:guide
       position="25.650755,46.040395"
       orientation="0.70710678,0.70710678"
       id="guide4367" />
    <sodipodi:guide
       position="46.902658,18.124084"
       orientation="0.70710678,0.70710678"
       id="guide4369" />
  </sodipodi:namedview>
  <metadata
     id="metadata7">
    <rdf:RDF>
      <cc:Work
         rdf:about="">
        <dc:format>image/svg+xml</dc:format>
        <dc:type
           rdf:resource="http://purl.org/dc/dcmitype/StillImage" />
        <dc:title />
      </cc:Work>
    </rdf:RDF>
  </metadata>
  <g
     inkscape:groupmode="layer"
     id="layer5"
     inkscape:label="FormOutherColor"
     style="display:inline">
    <path
       style="display:inline;opacity:1;fill:#000000;fill-opacity:0.39215687;fill-rule:nonzero;stroke:none;stroke-width:0.5;stroke-linecap:butt;stroke-linejoin:miter;stroke-miterlimit:4;stroke-dasharray:none;stroke-opacity:1;filter:url(#filter4561)"
       d="M 50,2.5000225 A 41.5,41.499976 0 0 0 8.5000001,43.999987 41.5,41.499976 0 0 0 50,85.499961 l 0,13.000038 c 0,0 41.678571,-13.000018 41.5,-54.500012 A 41.5,41.499976 0 0 0 50,2.5000225 Z"
       id="path4180-9"
       inkscape:connector-curvature="0" />
  </g>
  <g
     inkscape:label="Form"
     inkscape:groupmode="layer"
     id="layer1"
     transform="translate(0,-952.3622)"
     style="display:inline">
    <path
       style="fill:none;fill-rule:evenodd;stroke:none;stroke-width:1px;stroke-linecap:butt;stroke-linejoin:miter;stroke-opacity:1"
       d="M 91.5,995.86218 C 86.760631,1033.2273 50,1050.3622 50,1050.3622 l 0,-54.50002 z"
       id="path4196"
       inkscape:connector-curvature="0" />
    <g
       id="form"
       style="fill:#2f6d32;fill-opacity:1"
       transform="translate(-3.8051824e-7,3.0000001e-6)">
      <path
         style="opacity:1;fill:url(#linearGradient4520);fill-opacity:1;fill-rule:nonzero;stroke:url(#linearGradient4273);stroke-width:0.5;stroke-linecap:butt;stroke-linejoin:miter;stroke-miterlimit:4;stroke-dasharray:none;stroke-opacity:1"
         d="M 50,2 A 41.5,41.5 0 0 0 8.5,43.5 41.5,41.5 0 0 0 50,85 l 0,13 C 50,98 91.678571,85.00002 91.5,43.5 A 41.5,41.5 0 0 0 50,2 Z"
         transform="translate(3.8051824e-7,952.3622)"
         id="path4180"
         inkscape:connector-curvature="0" />
    </g>
  </g>
  <g
     inkscape:groupmode="layer"
     id="layer4"
     inkscape:label="FormInlineShadow" />
  <g
     inkscape:groupmode="layer"
     id="layer3"
     inkscape:label="ShadowPlanets"
     style="display:inline">
    <path
       inkscape:connector-curvature="0"
       style="display:inline;opacity:1;fill:#000000;fill-opacity:0.07843138;fill-rule:nonzero;stroke:none;stroke-width:5;stroke-linecap:butt;stroke-linejoin:miter;stroke-miterlimit:4;stroke-dasharray:none;stroke-opacity:1"
       d="m 53.095433,5.1249825 -21.68946,4.6425785 -12.406247,13.232422 -5.77148,9.087891 6.87305,6.873047 -2.60743,5.111328 8.52149,8.521484 -0.36523,1.365235 24.349597,24.349609 2.19141,2.191406 -2.19141,0.570313 -3.09765,0.804687 3.09765,3.097656 0.0254,0.02539 9.02929,9.029294 c 12.24071,-6.441392 32.55626,-21.486352 32.44531,-50.498043 l -0.002,-0.002 -0.0273,-0.02734 -38.375,-38.3749995 z"
       id="path4180-5" />
  </g>
  <g
     inkscape:groupmode="layer"
     id="layer2"
     inkscape:label="Planets"
     style="display:inline">
    <g
       transform="matrix(0.91881066,-0.3946986,0.3946986,0.91881066,-389.00682,-851.77341)"
       id="g4835"
       style="fill:#ffffff;fill-opacity:1">
      <circle
         r="20.5"
         cy="995.86218"
         cx="50"
         id="path4148"
         style="opacity:1;fill:#ffffff;fill-opacity:1;fill-rule:nonzero;stroke:none;stroke-width:5;stroke-linecap:butt;stroke-linejoin:miter;stroke-miterlimit:4;stroke-dasharray:none;stroke-opacity:1" />
      <path
         inkscape:connector-curvature="0"
         id="rect4348"
         d="m 40.239415,964.86148 c -9.605863,3.0242 -16.802396,10.0706 -20.330686,18.69605 l 2.753327,1.12583 c 3.195628,-7.82473 9.731391,-14.20514 18.478892,-16.95911 l -0.901533,-2.86277 z m 37.098674,42.17882 c -3.19625,7.8237 -9.732028,14.2054 -18.478892,16.9591 l 0.901533,2.8628 c 9.605894,-3.0242 16.804345,-10.0699 20.332494,-18.6953 l -2.755135,-1.1266 z"
         style="color:#000000;font-style:normal;font-variant:normal;font-weight:normal;font-stretch:normal;font-size:medium;line-height:normal;font-family:sans-serif;text-indent:0;text-align:start;text-decoration:none;text-decoration-line:none;text-decoration-style:solid;text-decoration-color:#000000;letter-spacing:normal;word-spacing:normal;text-transform:none;direction:ltr;block-progression:tb;writing-mode:lr-tb;baseline-shift:baseline;text-anchor:start;white-space:normal;clip-rule:nonzero;display:inline;overflow:visible;visibility:visible;opacity:1;isolation:auto;mix-blend-mode:normal;color-interpolation:sRGB;color-interpolation-filters:linearRGB;solid-color:#000000;solid-opacity:1;fill:#ffffff;fill-opacity:1;fill-rule:nonzero;stroke:none;stroke-width:3;stroke-linecap:butt;stroke-linejoin:miter;stroke-miterlimit:4;stroke-dasharray:none;stroke-dashoffset:0;stroke-opacity:1;color-rendering:auto;image-rendering:auto;shape-rendering:auto;text-rendering:auto;enable-background:accumulate" />
      <path
         style="color:#000000;font-style:normal;font-variant:normal;font-weight:normal;font-stretch:normal;font-size:medium;line-height:normal;font-family:sans-serif;text-indent:0;text-align:start;text-decoration:none;text-decoration-line:none;text-decoration-style:solid;text-decoration-color:#000000;letter-spacing:normal;word-spacing:normal;text-transform:none;direction:ltr;block-progression:tb;writing-mode:lr-tb;baseline-shift:baseline;text-anchor:start;white-space:normal;clip-rule:nonzero;display:inline;overflow:visible;visibility:visible;opacity:1;isolation:auto;mix-blend-mode:normal;color-interpolation:sRGB;color-interpolation-filters:linearRGB;solid-color:#000000;solid-opacity:1;fill:#ffffff;fill-opacity:1;fill-rule:nonzero;stroke:none;stroke-width:3;stroke-linecap:butt;stroke-linejoin:miter;stroke-miterlimit:4;stroke-dasharray:none;stroke-dashoffset:0;stroke-opacity:1;color-rendering:auto;image-rendering:auto;shape-rendering:auto;text-rendering:auto;enable-background:accumulate"
         d="m 67.991806,961.82466 c -16.274725,-8.60223 -35.832077,-4.41042 -47.271908,9.03753 l 2.277052,1.9442 c 10.549208,-12.43244 28.543849,-16.28342 43.592855,-8.32906 l 1.402001,-2.65267 z m 9.012721,57.09464 c -10.54946,12.4323 -28.545279,16.2821 -43.594339,8.3278 l -1.401995,2.6527 c 16.274759,8.6023 35.83201,4.4104 47.271905,-9.0376 l -2.275571,-1.9429 z"
         id="rect4350"
         inkscape:connector-curvature="0" />
      <path
         inkscape:connector-curvature="0"
         id="rect4346-3"
         d="m 23.500247,995.8619 3,3e-5 c 1.29e-4,-13.04495 10.455278,-23.4999 23.500228,-23.49977 l 3e-5,-3 c -14.65505,-1.4e-4 -26.500113,11.84469 -26.500258,26.49974 z m 26.499738,26.5003 c 14.65505,10e-5 26.50012,-11.8447 26.50026,-26.49978 l -3,-3e-5 c -1.3e-4,13.04501 -10.45528,23.49991 -23.50023,23.49981 l -3e-5,3 z"
         style="color:#000000;font-style:normal;font-variant:normal;font-weight:normal;font-stretch:normal;font-size:medium;line-height:normal;font-family:sans-serif;text-indent:0;text-align:start;text-decoration:none;text-decoration-line:none;text-decoration-style:solid;text-decoration-color:#000000;letter-spacing:normal;word-spacing:normal;text-transform:none;direction:ltr;block-progression:tb;writing-mode:lr-tb;baseline-shift:baseline;text-anchor:start;white-space:normal;clip-rule:nonzero;display:inline;overflow:visible;visibility:visible;opacity:1;isolation:auto;mix-blend-mode:normal;color-interpolation:sRGB;color-interpolation-filters:linearRGB;solid-color:#000000;solid-opacity:1;fill:#ffffff;fill-opacity:1;fill-rule:nonzero;stroke:none;stroke-width:3;stroke-linecap:butt;stroke-linejoin:miter;stroke-miterlimit:4;stroke-dasharray:none;stroke-dashoffset:30;stroke-opacity:1;color-rendering:auto;image-rendering:auto;shape-rendering:auto;text-rendering:auto;enable-background:accumulate" />
    </g>
  </g>
</svg>
